%YAML 1.1
%TAG !u! tag:unity3d.com,2011:
--- !u!1045 &1
EditorBuildSettings:
  m_ObjectHideFlags: 0
  serializedVersion: 2
  m_Scenes:
  - enabled: 1
    path: Assets/Scenes/SampleScene.unity
    guid: 2cda990e2423bbf4892e6590ba056729
  - enabled: 1
    path: Assets/Scenes/Presistant.unity
    guid: 9c8780df0d850be4ba402b135432c6c3
  - enabled: 1
    path: Assets/Scenes/MenuScreen.unity
    guid: 3d5ef047c95cedd4486cc4b8f069b334
  - enabled: 1
    path: Assets/Scenes/Game.unity
    guid: 4d4b0e5e27f64af4294c2f06e0447132
  - enabled: 1
    path: Assets/Scenes/BookShelf.unity
    guid: cc7f0d03792ec064ab20b3dad3f6d305
  m_configObjects: {}
